{"shops":{"current_page":1,"data":[{"id":2,"user_id":2,"title":"Daiso Sushi","type":"japanese buffet resturant","branch":"Ruamchok (\u0e23\u0e27\u0e21\u0e42\u0e0a\u0e04)","location":"Big C Ruamchok","description":null,"max_count":50,"current_count":50,"created_at":"2021-05-05T04:04:05.000000Z","updated_at":"2021-05-09T08:17:37.000000Z"},{"id":3,"user_id":5,"title":"MK Resturant (Central Fest)","type":"Suki yaki","branch":"Central festival Chiangmai","location":"4th floor Central Fest Chiangmai","description":null,"max_count":40,"current_count":21,"created_at":"2021-05-05T04:15:23.000000Z","updated_at":"2021-05-05T04:32:38.000000Z"},{"id":12,"user_id":13,"title":"\u0e21\u0e32\u0e25\u0e35 \u0e01\u0e4b\u0e27\u0e22\u0e40\u0e15\u0e35\u0e4b\u0e22\u0e27\u0e15\u0e49\u0e21\u0e22\u0e33 (Mali noodle)","type":"\u0e01\u0e4b\u0e27\u0e22\u0e40\u0e15\u0e35\u0e4b\u0e22\u0e27 (Noddle)","branch":"\u0e04\u0e31\u0e19\u0e04\u0e25\u0e2d\u0e07","location":"\u0e04\u0e31\u0e19\u0e04\u0e25\u0e2d\u0e07","description":null,"max_count":30,"current_count":16,"created_at":"2021-05-05T04:38:34.000000Z","updated_at":"2021-05-05T04:39:13.000000Z"},{"id":4,"user_id":6,"title":"Boat Resturant","type":"Fusion food","branch":"Hua Keaw (\u0e2b\u0e49\u0e27\u0e22\u0e41\u0e01\u0e49\u0e27)","location":"Hua Keaw (\u0e2b\u0e49\u0e27\u0e22\u0e41\u0e01\u0e49\u0e27)","description":null,"max_count":25,"current_count":13,"created_at":"2021-05-05T04:18:26.000000Z","updated_at":"2021-05-05T04:33:16.000000Z"},{"id":5,"user_id":7,"title":"MK Resturant (Central airport plaza)","type":"suki yaki","branch":"Central Airport Plaza","location":"4th floor Central Airport Plaza","description":null,"max_count":35,"current_count":5,"created_at":"2021-05-05T04:21:40.000000Z","updated_at":"2021-05-05T04:33:41.000000Z"}],"first_page_url":"http:\/\/safesguard.com\/api\/shop\/top?page=1","from":1,"last_page":2,"last_page_url":"http:\/\/safesguard.com\/api\/shop\/top?page=2","links":[{"url":null,"label":"&laquo; Previous","active":false},{"url":"http:\/\/safesguard.com\/api\/shop\/top?page=1","label":"1","active":true},{"url":"http:\/\/safesguard.com\/api\/shop\/top?page=2","label":"2","active":false},{"url":"http:\/\/safesguard.com\/api\/shop\/top?page=2","label":"Next &raquo;","active":false}],"next_page_url":"http:\/\/safesguard.com\/api\/shop\/top?page=2","path":"http:\/\/safesguard.com\/api\/shop\/top","per_page":5,"prev_page_url":null,"to":5,"total":10}}